[gd_scene load_steps=3 format=3 uid="uid://c8024ohyvhk5i"]

[ext_resource type="PackedScene" uid="uid://8fmb03aluec" path="res://graph_node_renderer/descriptors/descriptor_container.tscn" id="1_5hcki"]
[ext_resource type="Script" path="res://graph_node_renderer/descriptors/field_descriptor.gd" id="2_fot1l"]

[node name="FieldDescriptor" instance=ExtResource("1_5hcki")]
script = ExtResource("2_fot1l")

[node name="LineEdit" type="LineEdit" parent="." index="1"]
unique_name_in_owner = true
layout_mode = 2
size_flags_horizontal = 3
caret_blink = true
