[gd_scene load_steps=3 format=3 uid="uid://b1gndmvua0sc1"]

[ext_resource type="PackedScene" uid="uid://8fmb03aluec" path="res://graph_node_renderer/descriptors/descriptor_container.tscn" id="1_d3gnn"]
[ext_resource type="Script" path="res://graph_node_renderer/descriptors/single_choice_descriptor.gd" id="2_v3n2u"]

[node name="SingleChoiceDescriptor" instance=ExtResource("1_d3gnn")]
script = ExtResource("2_v3n2u")

[node name="Box" type="OptionButton" parent="." index="1"]
unique_name_in_owner = true
layout_mode = 2
size_flags_horizontal = 3
